<svg viewBox="0 20 100 80" fill="#333" xmlns="http://www.w3.org/2000/svg">
<style>

</style>


<defs>
<path id="MyPath" fill="none" stroke="red"
        d="M10,50 C30,30 70,30 90,50" />

<path id="MyPath2" fill="none" stroke="red"
        d="M30,60 C40,50 60,50 70,60" />
</defs>

<text>
    <textPath href="#MyPath" startOffset="52%" text-anchor="middle" class="notFound">
      4 oh 4
    </textPath>
    <textPath href="#MyPath2" startOffset="50%" text-anchor="middle" class="notFound">
      no
    </textPath>
</text>

</svg>