<svg width="208" height="208" viewBox="0 0 208 208" fill="none" xmlns="http://www.w3.org/2000/svg">
<path d="M90.0659 104L90.0659 156L45.0332 130L90.0659 104Z" fill="url(#paint0_linear)"/>
<path d="M162.966 77.9992L207.997 52L208 52.0015V52L117.935 0V52L162.966 77.9992Z" fill="url(#paint1_linear)"/>
<path d="M117.935 207.998V104L208 52V104L162.967 130V182L162.969 182.001L117.937 208L117.935 207.998Z" fill="#333330"/>
<path d="M90.0655 0L0 52V156L90.0655 208V156L45.0328 130V78L90.0655 52V0Z" fill="#333330"/>
<defs>
<linearGradient id="paint0_linear" x1="67.5495" y1="104" x2="67.5495" y2="156" gradientUnits="userSpaceOnUse">
<stop offset="0" stop-color="#333330"/>
<stop offset="1" stop-color="#111110"/>
</linearGradient>
<linearGradient id="paint1_linear" x1="117.936" y1="36.296" x2="208" y2="36.296" gradientUnits="userSpaceOnUse">
<stop offset="0" stop-color="#333330"/>
<stop offset="1" stop-color="#111110"/>
</linearGradient>
</defs>
</svg>
