<?xml version="1.0" encoding="UTF-8" standalone="no"?>
<svg
   xmlns:svg="http://www.w3.org/2000/svg"
   xmlns="http://www.w3.org/2000/svg"
   viewBox="-100 -100 200 200"
   id="lgp">
<style>
    /* <![CDATA[ */
    
    /* MODIFY HERE PARAMETERS */
    #lgp{
      --color-fg-primary:  #9CB4CC;
      --color-fg-alternate:    #6B7C8C;
      --color-bg: #313840;
    }
    

    #lgp-bg-left-negative {
      fill: transparent;
    }
    #lgp-bg-right-negative{
      fill: transparent;
    }
    #lgp-bg-left {
      fill: transparent;
    }
    #lgp-bg-right{
      fill: transparent;
    }

    #lgp-g {
      fill: var(--color-lighter);
    }
    #lgp-g-fold {      ;

      fill: var(--color-lighter);
    }
    .lgp-g{
    }
    #lgp-p {
      fill: var(--color-light);
    }
    #lgp-p-fold {      ;

      fill: var(--color-light);
    }
    path {
      opacity: .5;
    }

    /* ]]> */ 
  </style>

  <!-- Complete square background. Should never be actually used. usefull for exports size -->
  <!-- <rect id="lgp-square-baground" x="-100" y="-100" width="200" height="200" fill="#dff"></rect> -->
  <!-- Actual hexagonal background, split between left and right. -->

  <path class="lgp-bg" id="lgp-bg-left"
    d="M.2,-90 L-77.94,-45 L-77.94,45 L-.2,90 Z"> 
  </path>
  <path class="lgp-bg" id="lgp-bg-right"
    d="M-.2,-90 L77.94,-45 L77.94,45 L-.2,90 Z"> 
  </path>

  <path class="lgp-g" id="lgp-g"
    d="M0,-70 L-60.62,-35 L-60.62,35 L0,70 L0,40 L-34.64,20 L-34.64,-20 L0,-40 Z"> 
  </path>
  <path class="lgp-g" id="lgp-g-fold"
    d="M0,0 L-25.98,15 L-25.98,25 L0,40  Z"> 
  </path>


  <path class="lgp-p" id="lgp-p"
    d="M0,0 L0,70 L25.98,55 L25.98,15 L60.62,-5 L60.62,-35 Z"> 
  </path>
  <path class="lgp-p" id="lgp-p-fold"
    d="M0,-70 L0,-40 L34.64,-20 L60.62,-35Z"> 
  </path>












<!-- 





<circle cx="0" cy="0" r="40" stroke-width=".5" stroke="black" fill="none"></circle>
<circle cx="0" cy="0" r="70" stroke-width=".5" stroke="black" fill="none"></circle>
<circle cx="0" cy="0" r="90" stroke-width=".5" stroke="black" fill="none"></circle>


<line x1="-25.98" x2="-25.98" y1="-100" y2="100" stroke-width=".3" stroke="black"></line>
<line x1="-34.64" x2="-34.64" y1="-100" y2="100" stroke-width=".3" stroke="black"></line>
<line x1="-60.62" x2="-60.62" y1="-100" y2="100" stroke-width=".3" stroke="black"></line>
<line x1="-77.94" x2="-77.94" y1="-100" y2="100" stroke-width=".3" stroke="black"></line>
<line x1="-100" x2="100" y1="-35" y2="-35" stroke-width=".3" stroke="black"></line>
<line x1="-100" x2="100" y1="-70" y2="-70" stroke-width=".3" stroke="black"></line>


 -->


</svg>
