<svg
  id="logo-gp"
  xmlns="http://www.w3.org/2000/svg" 
  xmlns:xlink="http://www.w3.org/1999/xlink"
  width="200px"
  height="200px"
  viewBox="-100 -100 200 200">

  <filter id="roughpaper" x="0%" y="0%" width="100%" height="100%">
    <feTurbulence  baseFrequency="9" numOctaves="5" seed="1.7"/>
  </filter>

  <rect fill="#333" opacity=".9" x="-100" y="-100" width="200" height="200" filter="url(#roughpaper)"></rect>

</svg>